<?xml version="1.0" encoding="UTF-8" standalone="no"?>
<svg
   xmlns:dc="http://purl.org/dc/elements/1.1/"
   xmlns:cc="http://creativecommons.org/ns#"
   xmlns:rdf="http://www.w3.org/1999/02/22-rdf-syntax-ns#"
   xmlns:svg="http://www.w3.org/2000/svg"
   xmlns="http://www.w3.org/2000/svg"
   xmlns:sodipodi="http://sodipodi.sourceforge.net/DTD/sodipodi-0.dtd"
   xmlns:inkscape="http://www.inkscape.org/namespaces/inkscape"
   id="svg8"
   width="400"
   height="400"
   version="1.1"
   viewBox="0 0 105.83462 105.83227"
   sodipodi:docname="favicon.svg"
   inkscape:version="1.0.2 (e86c870879, 2021-01-15)">
  <metadata
     id="metadata41">
    <rdf:RDF>
      <cc:Work
         rdf:about="">
        <dc:format>image/svg+xml</dc:format>
        <dc:type
           rdf:resource="http://purl.org/dc/dcmitype/StillImage" />
        <dc:title />
      </cc:Work>
    </rdf:RDF>
  </metadata>
  <sodipodi:namedview
     pagecolor="#ffffff"
     bordercolor="#666666"
     borderopacity="1"
     objecttolerance="10"
     gridtolerance="10"
     guidetolerance="10"
     inkscape:pageopacity="0"
     inkscape:pageshadow="2"
     inkscape:window-width="1920"
     inkscape:window-height="1056"
     id="namedview39"
     showgrid="false"
     inkscape:zoom="1.8274669"
     inkscape:cx="134.24294"
     inkscape:cy="214.07079"
     inkscape:window-x="0"
     inkscape:window-y="24"
     inkscape:window-maximized="0"
     inkscape:current-layer="svg8"
     inkscape:document-rotation="0" />
  <defs
     id="defs2">
    <clipPath
       id="clipPath3657">
      <path
         id="path3659"
         d="m 66.67,63.686 c -17.477,0.006 -34.497,3.5 -48.637,10.01 a 1.169,1.169 0 0 0 -0.57338,1.5495 1.169,1.169 0 0 0 1.5495,0.57336 c 13.781,-6.3446 30.496,-9.7876 47.661,-9.7935 h 0.0441 c 17.181,8e-6 33.912,3.4433 47.705,9.7935 a 1.169,1.169 0 0 0 1.5495,-0.57336 1.169,1.169 0 0 0 -0.57339,-1.5495 c -14.153,-6.5158 -31.189,-10.01 -48.682,-10.01 z"
         color="#000000"
         color-rendering="auto"
         dominant-baseline="auto"
         fill="#a80030"
         fill-rule="evenodd"
         image-rendering="auto"
         shape-rendering="auto"
         solid-color="#000000"
         stop-color="#000000" />
    </clipPath>
  </defs>
  <g
     id="g107"
     transform="matrix(1.0675528,0,0,1.0675528,-0.20227868,16.49233)">
    <g
       id="g1156"
       transform="matrix(1.0181,0,0,1.0181,-18.1663,-23.6408)"
       clip-path="url(#clipPath3657)"
       fill="#a80030">
      <path
         id="path878"
         d="m 17.844,72.876 a 120.16,116.79 0 0 1 17.221,-5.9723 l 31.651,112.67 z" />
      <path
         id="path878-6"
         d="m 26.338,69.571 a 120.16,116.79 0 0 1 17.639,-4.6814 l 22.74,114.68 z" />
      <path
         id="path878-6-7"
         d="m 35.065,66.903 a 120.16,116.79 0 0 1 17.954,-3.3634 l 13.697,116.03 z" />
      <path
         id="path878-6-7-6"
         d="m 43.977,64.889 a 120.16,116.79 0 0 1 18.166,-2.0259 l 4.5745,116.71 z" />
      <path
         id="path878-6-7-6-2"
         d="m 53.02,63.54 a 120.16,116.79 0 0 1 18.272,-0.6766 l -4.5745,116.71 z" />
      <path
         id="path878-6-7-6-2-93"
         d="M 80.412,63.537 A 120.16,116.79 0 0 0 62.14,62.8604 l 4.5745,116.71 z" />
      <path
         id="path878-6-7-6-0"
         d="M 89.455,64.886 A 120.16,116.79 0 0 0 71.289,62.8601 l -4.5745,116.71 z" />
      <path
         id="path878-6-7-7"
         d="M 98.367,66.901 A 120.16,116.79 0 0 0 80.413,63.5376 l -13.697,116.03 z" />
      <path
         id="path878-6-2"
         d="M 107.09,69.568 A 120.16,116.79 0 0 0 89.451,64.8866 l -22.74,114.68 z" />
      <path
         id="path878-1"
         d="M 115.59,72.873 A 120.16,116.79 0 0 0 98.369,66.9007 l -31.651,112.67 z" />
      <path
         id="path878-1-0"
         d="m 115.59,72.873 a 120.16,116.79 0 0 0 -8.4936,-3.305 l -40.379,110 z" />
    </g>
    <g
       id="path238"
       transform="translate(-13.745,-5.7498)">
      <path
         id="path2331"
         d="M 112.58,58.169 C 98.349,51.617 81.152,48.084 63.495,48.084 h -0.04496 c -17.642,0.006 -34.821,3.5389 -49.04,10.085"
         color="#000000"
         color-rendering="auto"
         dominant-baseline="auto"
         fill-opacity="0"
         image-rendering="auto"
         shape-rendering="auto"
         solid-color="#000000" />
    </g>
    <g
       id="g888"
       transform="translate(-7.6854,-7.3373)"
       fill="#a80030">
      <path
         id="path2698"
         d="m 36.751,57.478 q 0.99483,0 1.7039,0.49742 0.71966,0.48683 1.0901,1.3335 0.381,0.83608 0.381,1.8732 0,1.03712 -0.381,1.8838 -0.37042,0.83608 -1.0901,1.3335 -0.70908,0.48683 -1.7039,0.48683 h -2.5294 q -0.27517,0 -0.46566,-0.17992 -0.17992,-0.1905 -0.17992,-0.46566 v -6.1171 q 0,-0.27517 0.17992,-0.45508 0.1905,-0.1905 0.46566,-0.1905 z m -0.10583,6.1912 q 0.9525,0 1.4287,-0.6985 0.47625,-0.70908 0.47625,-1.7886 0,-1.0795 -0.48683,-1.778 -0.47625,-0.70908 -1.4182,-0.70908 h -1.7462 v 4.9742 z" />
      <path
         id="path2700"
         d="m 45.334,63.669 q 0.27517,0 0.45508,0.1905 0.1905,0.17992 0.1905,0.42333 0,0.26458 -0.1905,0.43392 -0.17992,0.16933 -0.45508,0.16933 h -3.5454 q -0.27516,0 -0.46566,-0.17992 -0.17992,-0.1905 -0.17992,-0.46566 v -6.1171 q 0,-0.27517 0.17992,-0.45508 0.1905,-0.1905 0.46566,-0.1905 h 3.5454 q 0.27517,0 0.45508,0.17992 0.1905,0.16933 0.1905,0.4445 0,0.26458 -0.17992,0.43392 -0.17992,0.15875 -0.46566,0.15875 h -2.8681 v 1.7992 h 2.3918 q 0.27517,0 0.45508,0.17992 0.1905,0.16933 0.1905,0.4445 0,0.26458 -0.17992,0.43392 -0.17992,0.15875 -0.46566,0.15875 h -2.3918 v 1.9579 z" />
      <path
         id="path2702"
         d="m 51.641,60.78 q 0.56092,0.22225 0.91016,0.67733 0.35983,0.45508 0.35983,1.1747 0,1.2594 -0.71966,1.7568 -0.71966,0.49742 -1.7145,0.49742 h -2.6352 q -0.27517,0 -0.46566,-0.17992 -0.17992,-0.1905 -0.17992,-0.46566 v -6.1171 q 0,-0.27517 0.17992,-0.45508 0.1905,-0.1905 0.46566,-0.1905 h 2.667 q 2.0108,0 2.0108,1.8838 0,0.47625 -0.23283,0.84666 -0.22225,0.35983 -0.64558,0.5715 z m -0.49742,-1.1853 q 0,-0.43392 -0.22225,-0.64558 -0.21167,-0.22225 -0.60325,-0.22225 h -1.7462 v 1.651 h 1.778 q 0.3175,0 0.55033,-0.21167 0.24342,-0.21167 0.24342,-0.5715 z m -0.66675,4.0746 q 0.49742,0 0.77258,-0.26458 0.28575,-0.26458 0.28575,-0.77258 0,-0.62442 -0.32808,-0.81491 -0.32808,-0.1905 -0.80433,-0.1905 h -1.8309 v 2.0426 z" />
      <path
         id="path2704"
         d="m 59.314,57.838 q 0.32808,0.16933 0.32808,0.53975 0,0.22225 -0.15875,0.43392 -0.16933,0.22225 -0.43392,0.22225 -0.17992,0 -0.35983,-0.09525 -0.51858,-0.24342 -1.1218,-0.24342 -0.74083,0 -1.2912,0.3175 -0.55033,0.30692 -0.84666,0.87841 -0.29633,0.56091 -0.29633,1.2912 0,1.2488 0.66675,1.8944 0.67733,0.64558 1.7674,0.64558 0.64558,0 1.1218,-0.24342 0.1905,-0.08467 0.33866,-0.08467 0.27517,0 0.46567,0.23283 0.15875,0.20108 0.15875,0.43392 0,0.16933 -0.08467,0.30692 -0.08467,0.13759 -0.24342,0.21167 -0.8255,0.41275 -1.7568,0.41275 -1.0372,0 -1.905,-0.43392 -0.86783,-0.4445 -1.3864,-1.3017 -0.51857,-0.8572 -0.51858,-2.0743 0,-1.0795 0.48683,-1.9367 0.49742,-0.85725 1.3652,-1.3335 0.86783,-0.48683 1.9579,-0.48683 0.94191,0 1.7462,0.41275 z" />
      <path
         id="path2706"
         d="m 67.58,61.182 q 0,1.0477 -0.46566,1.9262 -0.46566,0.86783 -1.2912,1.3758 -0.81491,0.508 -1.8415,0.508 -1.02659,0 -1.8521,-0.508 -0.81491,-0.508 -1.2806,-1.3758 -0.45508,-0.87841 -0.45508,-1.9262 0,-1.04779 0.45508,-1.9156 0.46567,-0.87841 1.2806,-1.3864 0.8255,-0.508 1.8521,-0.508 1.0266,0 1.8415,0.508 0.8255,0.508 1.2912,1.3864 Q 67.58,60.13423 67.58,61.182 Z m -1.3758,0 q 0,-0.70908 -0.28575,-1.2806 -0.28575,-0.58208 -0.79375,-0.92075 -0.508,-0.33867 -1.143,-0.33867 -0.64558,0 -1.1536,0.33867 -0.49742,0.32808 -0.78316,0.91016 -0.27516,0.58208 -0.27516,1.2912 0,0.70912 0.27516,1.2912 0.28575,0.58208 0.78316,0.92075 0.508,0.32808 1.1536,0.32808 0.635,0 1.143,-0.33867 0.508,-0.33866 0.79375,-0.91016 0.28575,-0.58208 0.28575,-1.2912 z" />
      <path
         id="path2708"
         d="m 74.417,57.478 q 0.254,0 0.41275,0.16933 0.15875,0.16933 0.15875,0.42333 v 6.1701 q 0,0.27516 -0.1905,0.46566 -0.17992,0.17992 -0.45508,0.17992 -0.14817,0 -0.29633,-0.04233 -0.13758,-0.05292 -0.20108,-0.13758 l -3.8841,-4.9318 v 4.5191 q 0,0.254 -0.16933,0.42333 -0.15875,0.16933 -0.42333,0.16933 -0.254,0 -0.41275,-0.16933 -0.15875,-0.16933 -0.15875,-0.42333 v -6.1701 q 0,-0.27517 0.17992,-0.45508 0.1905,-0.1905 0.46566,-0.1905 0.15875,0 0.30692,0.0635 0.15875,0.0635 0.23283,0.16933 l 3.8523,4.9107 v -4.5508 q 0,-0.254 0.15875,-0.42333 0.16933,-0.16933 0.42333,-0.16933 z" />
      <path
         id="path2710"
         d="m 77.899,58.695 v 1.8627 h 2.286 q 0.27516,0 0.45508,0.17992 0.1905,0.16933 0.1905,0.4445 0,0.23283 -0.1905,0.41275 -0.17992,0.17992 -0.45508,0.17992 h -2.286 v 2.4659 q 0,0.27516 -0.20108,0.46566 -0.1905,0.17992 -0.45508,0.17992 -0.29633,0 -0.48683,-0.17992 -0.17992,-0.17992 -0.17992,-0.46566 v -6.1171 q 0,-0.27517 0.17992,-0.45508 0.1905,-0.1905 0.46567,-0.1905 h 3.4396 q 0.27517,0 0.45508,0.17992 0.1905,0.16933 0.1905,0.4445 0,0.23283 -0.1905,0.41275 -0.17992,0.17992 -0.45508,0.17992 z" />
    </g>
    <g
       id="g879"
       transform="translate(-10.9837,-9.9831)"
       fill="#a80030">
      <path
         id="path2716"
         d="m 49.098,74.411 q 0,1.0477 -0.46567,1.9262 -0.46566,0.86783 -1.2912,1.3758 -0.81491,0.508 -1.8415,0.508 -1.02659,0 -1.8521,-0.508 -0.81491,-0.508 -1.2806,-1.3758 -0.45508,-0.87841 -0.45508,-1.9262 0,-1.0477 0.45508,-1.9156 0.46566,-0.87841 1.2806,-1.3864 0.8255,-0.508 1.8521,-0.508 1.0266,0 1.8415,0.508 0.8255,0.508 1.2912,1.3864 0.46567,0.86783 0.46567,1.9156 z m -1.3758,0 q 0,-0.70908 -0.28575,-1.2806 -0.28575,-0.58208 -0.79375,-0.92075 -0.508,-0.33866 -1.143,-0.33866 -0.64558,0 -1.1536,0.33866 -0.49742,0.32808 -0.78316,0.91016 -0.27517,0.58208 -0.27517,1.2912 0,0.70912 0.27517,1.2912 0.28575,0.58208 0.78316,0.92075 0.508,0.32808 1.1536,0.32808 0.635,0 1.143,-0.33867 0.508,-0.33867 0.79375,-0.91016 0.28575,-0.58208 0.28575,-1.2912 z" />
      <path
         id="path2718"
         d="m 55.935,70.707 q 0.254,0 0.41275,0.16933 0.15875,0.16933 0.15875,0.42333 v 6.1701 q 0,0.27517 -0.1905,0.46566 -0.17992,0.17992 -0.45508,0.17992 -0.14817,0 -0.29633,-0.04233 -0.13758,-0.05292 -0.20108,-0.13758 l -3.8841,-4.9318 v 4.5191 q 0,0.254 -0.16933,0.42333 -0.15875,0.16933 -0.42333,0.16933 -0.254,0 -0.41275,-0.16933 -0.15875,-0.16933 -0.15875,-0.42333 v -6.1701 q 0,-0.27517 0.17992,-0.45508 0.1905,-0.1905 0.46566,-0.1905 0.15875,0 0.30692,0.0635 0.15875,0.0635 0.23283,0.16933 l 3.8523,4.9107 v -4.5508 q 0,-0.254 0.15875,-0.42333 0.16933,-0.16933 0.42333,-0.16933 z" />
      <path
         id="path2720"
         d="m 62.179,76.877 q 0.27516,0 0.45508,0.17992 0.1905,0.16933 0.1905,0.4445 0,0.26458 -0.1905,0.4445 -0.17992,0.16933 -0.45508,0.16933 h -3.4396 q -0.27517,0 -0.46566,-0.17992 -0.17992,-0.1905 -0.17992,-0.46566 v -6.1171 q 0,-0.27517 0.1905,-0.45508 0.1905,-0.1905 0.48683,-0.1905 0.26458,0 0.45508,0.1905 0.1905,0.17992 0.1905,0.45508 v 5.5245 z" />
      <path
         id="path2722"
         d="m 65.364,77.47 q 0,0.27517 -0.20108,0.46566 -0.20108,0.17992 -0.46566,0.17992 -0.28575,0 -0.47625,-0.17992 -0.17992,-0.1905 -0.17992,-0.46566 v -6.1171 q 0,-0.27517 0.1905,-0.45508 0.1905,-0.1905 0.48683,-0.1905 0.26458,0 0.45508,0.1905 0.1905,0.17992 0.1905,0.45508 z" />
      <path
         id="path2724"
         d="m 72.571,70.707 q 0.254,0 0.41275,0.16933 0.15875,0.16933 0.15875,0.42333 v 6.1701 q 0,0.27517 -0.1905,0.46566 -0.17992,0.17992 -0.45508,0.17992 -0.14817,0 -0.29633,-0.04233 -0.13758,-0.05292 -0.20108,-0.13758 l -3.8841,-4.9318 v 4.5191 q 0,0.254 -0.16933,0.42333 -0.15875,0.16933 -0.42333,0.16933 -0.254,0 -0.41275,-0.16933 -0.15875,-0.16933 -0.15875,-0.42333 v -6.1701 q 0,-0.27517 0.17992,-0.45508 0.1905,-0.1905 0.46566,-0.1905 0.15875,0 0.30692,0.0635 0.15875,0.0635 0.23283,0.16933 l 3.8523,4.9107 v -4.5508 q 0,-0.254 0.15875,-0.42333 0.16933,-0.16933 0.42333,-0.16933 z" />
      <path
         id="path2726"
         d="m 78.921,76.899 q 0.27517,0 0.45508,0.1905 0.1905,0.17992 0.1905,0.42333 0,0.26458 -0.1905,0.43392 -0.17992,0.16933 -0.45508,0.16933 h -3.5454 q -0.27516,0 -0.46566,-0.17992 -0.17992,-0.1905 -0.17992,-0.46566 v -6.1171 q 0,-0.27517 0.17992,-0.45508 0.1905,-0.1905 0.46566,-0.1905 h 3.5454 q 0.27517,0 0.45508,0.17992 0.1905,0.16933 0.1905,0.4445 0,0.26458 -0.17992,0.43392 -0.17992,0.15875 -0.46566,0.15875 h -2.8681 v 1.7992 h 2.3918 q 0.27517,0 0.45508,0.17992 0.1905,0.16933 0.1905,0.4445 0,0.26458 -0.17992,0.43392 -0.17992,0.15875 -0.46567,0.15875 h -2.3918 v 1.9579 z" />
    </g>
    <path
       id="path1067"
       d="m 83.299,1.0839 c -0.56001,-0.018722 -0.89188,0.22858 -1.2528,0.62061 -0.12071,0.13554 -0.3193,0.34915 -0.59194,0.6224 -0.5453,0.54652 -1.3876,1.3278 -2.5109,2.2017 -2.2467,1.7478 -5.6177,3.8638 -10.009,5.2426 -0.64808,0.20369 -1.0084,0.89412 -0.80488,1.5422 0.20369,0.64808 0.89411,1.0084 1.5422,0.80488 4.7336,-1.4863 8.3537,-3.758 10.782,-5.6469 0.31883,-0.24804 0.44234,-0.40022 0.71997,-0.63255 l -6.8415,33.333 c -3.3452,-0.57633 -6.7416,-1.0299 -10.174,-1.3531 -0.03158,-0.0027 -0.06324,-0.0043 -0.09494,-0.0048 -0.64243,-0.01037 -1.1847,0.47538 -1.2447,1.1151 -0.06338,0.67656 0.43374,1.2764 1.1103,1.3397 7.2568,0.68334 14.349,1.9504 21.105,3.7627 0.65575,0.17601 1.3301,-0.21248 1.5068,-0.86804 0.17635,-0.65592 -0.2122,-1.3306 -0.86802,-1.5073 -2.9176,-0.78261 -5.8956,-1.4642 -8.9197,-2.0442 l 7.5976,-37.059 c 0.19897,-0.96284 -0.3919,-1.4485 -1.0515,-1.4691 z"
       color="#000000"
       color-rendering="auto"
       dominant-baseline="auto"
       fill="#a80030"
       image-rendering="auto"
       shape-rendering="auto"
       solid-color="#000000" />
    <path
       id="path848"
       d="m 45.734,0.0022 c -3.9099,-0.089302 -7.2082,2.6184 -9.3105,4.377 -0.45783,0.29944 -0.58804,0.87733 -0.31055,1.4219 0.25404,0.49852 0.96938,0.78142 1.4453,0.57031 2.0194,-1.5287 4.8179,-4.2705 8.0586,-4.1934 3.0726,0.073128 5.5013,1.3869 7.6387,3.748 3.4729,3.8331 3.6106,8.5559 3.1465,11.758 -0.71721,4.9483 -3.4422,7.0159 -6.9648,10.623 -4.0065,4.1025 -8.8516,8.0846 -11.656,9.4766 -0.64051,0.3228 -1.2357,0.67299 -1.1289,1.4414 0.17651,0.95311 0.81923,0.95078 1.4648,0.92383 6.1246,-0.48336 7.5704,-0.58763 12.531,-0.58203 2.918,0.0067 5.821,0.11105 8.6973,0.31055 1.0201,0.09083 1.6943,-0.29056 1.75,-1.1152 0.05567,-0.82467 -0.66098,-1.2099 -1.5293,-1.2363 -4.305,-0.25656 -8.3609,-0.39307 -12.168,-0.30859 -2.4747,0.14882 -3.2504,0.14077 -4.6504,0.26953 2.5781,-2.0192 5.8811,-4.5376 8.5371,-7.3379 3.6814,-3.8813 6.7945,-6.5358 7.5957,-11.914 0.71908,-4.8271 0.12604,-9.4538 -3.5781,-13.814 -2.4962,-2.8055 -5.6585,-4.3287 -9.5684,-4.418 z"
       color="#000000"
       color-rendering="auto"
       fill="#a80030"
       fill-rule="evenodd"
       image-rendering="auto"
       shape-rendering="auto"
       solid-color="#000000"
       style="text-indent:0;text-decoration:none;text-decoration-line:none;text-decoration-style:solid;text-decoration-color:#000000;text-transform:none;white-space:normal;isolation:auto;mix-blend-mode:normal;paint-order:markers stroke fill" />
    <path
       id="path1498-1-2"
       d="M 33.766,38.1472 C 29.0048,37.47102 23.612,36.5226 18.888,33.6718 14.5743,31.0687 9.9176,27.5236 8.505,22.6878 7.2266,18.3104 7.78112,13.1679 11.075,9.2508 c 2.0498,-2.4377 4.9044,-4.2223 7.9901,-4.8834 3.0801,-0.65983 6.4277,-0.17573 9.1246,1.3957 2.825,1.6461 4.9554,4.5584 5.5229,7.7424 0.28465,1.5973 0.19299,3.2656 -0.27492,4.8091 -0.46764,1.5427 -1.3185,2.9777 -2.4566,4.1056 -0.88557,0.8776 -1.9509,1.5725 -3.0959,1.9897 -1.1422,0.41731 -2.3847,0.55466 -3.5591,0.37205 -1.6841,-0.26188 -3.2859,-1.242 -4.2374,-2.6261 -0.94735,-1.3782 -1.2745,-3.2246 -0.818,-4.8082 0.34974,-1.2133 1.1639,-2.3202 2.2133,-3.0223 1.0494,-0.70221 2.3779,-1.032 3.6329,-0.89257 1.6604,0.27441 1.947,-2.2779 0.26708,-2.3785 -1.8326,-0.2037 -3.7053,0.25442 -5.2378,1.2798 -1.5325,1.0254 -2.6664,2.5793 -3.1771,4.3511 -0.67027,2.3252 -0.21075,4.8615 1.1463,6.8356 1.3529,1.9682 3.5102,3.2707 5.8457,3.6339 1.6075,0.24999 3.2449,0.05503 4.7475,-0.49267 1.5,-0.54694 2.8424,-1.4368 3.9566,-2.5409 1.4318,-1.4189 2.4875,-3.1917 3.0695,-5.1116 0.58175,-1.919 0.68843,-3.9617 0.33827,-5.9264 -0.7022,-3.9399 -3.2414,-7.3949 -6.6687,-9.3919 -2.6433,-1.5402 -5.7369,-2.1925 -8.7635,-1.9633 -0.69845,0.052886 -1.3931,0.15276 -2.0782,0.29952 -3.6481,0.7815 -6.9393,2.8532 -9.3217,5.6864 -3.8284,4.5529 -4.4708,10.366 -3.0931,15.426 1.5182,5.5764 6.6048,9.9645 11.556,12.946 5.2049,3.1341 12.389,4.2019 16.135,4.2536 0.72694,0.02115 1.2487,-0.23684 1.2851,-0.95042 0.03638,-0.71358 -0.60924,-1.2073 -1.3576,-1.2413 z"
       color="#000000"
       color-rendering="auto"
       fill="#a80030"
       fill-rule="evenodd"
       image-rendering="auto"
       shape-rendering="auto"
       solid-color="#000000"
       style="text-indent:0;text-decoration:none;text-decoration-line:none;text-decoration-style:solid;text-decoration-color:#000000;text-transform:none;white-space:normal;isolation:auto;mix-blend-mode:normal;paint-order:markers stroke fill" />
  </g>
</svg>
